{
  "quoterequest": {
    "TransactionReference": null,
    "additional_data": null,
    "sender_account_uri": "tel:+2130000",
    "recipient_account_uri": "tel:+213070001",
    "payment_amount": {
      "currency": "USD",
      "amount": "100"
    },
    "quote_type": {
      "reverse": null,
      "forward": {
        "fees_included": "true",
        "receiver_currency": "MAD"
      }
    },
    "payment_origination_country": "USD",
    "payment_type": "P2P",
    "transaction_reference": "081624351019982ACFQ",
    "bank_code": null
  }
}